…
Then I summarize within cities, but this time to obtain **the number of
unsolved homicides** (those for which the disposition is “Closed without
arrest” or “Open/No arrest”).

``` r
homicides_df %>% 
  filter(disposition == 'Closed without arrest' | 
           disposition == 'Open/No arrest') %>% 
  group_by(city_state) %>% 
  summarize(n_unsolved = n())
```

    ## # A tibble: 50 × 2
    ##    city_state      n_unsolved
    ##    <chr>                <int>
    ##  1 Albuquerque, NM        146
    ##  2 Atlanta, GA            373
    ##  3 Baltimore, MD         1825
    ##  4 Baton Rouge, LA        196
    ##  5 Birmingham, AL         347
    ##  6 Boston, MA             310
    ##  7 Buffalo, NY            319
    ##  8 Charlotte, NC          206
    ##  9 Chicago, IL           4073
    ## 10 Cincinnati, OH         309
    ## # … with 40 more rows
…
